…
# exemplo
sabesp_conteudo(result)
## Warning: package 'bindrcpp' was built under R version 3.4.4
## # A tibble: 24 x 3
##    titulo                               info lugar              
##    <chr>                               <dbl> <chr>              
##  1 índice armazenado                    62.5 sistemaCantareira  
##  2 pluviometria do dia                   0   sistemaCantareira  
##  3 pluviometria acumulada no mês        50.1 sistemaCantareira  
##  4 pluviometria média histórica do mês 203.  sistemaCantareira  
##  5 índice armazenado                    53.9 sistemaAltoTiete   
##  6 pluviometria do dia                   0   sistemaAltoTiete   
##  7 pluviometria acumulada no mês        54   sistemaAltoTiete   
##  8 pluviometria média histórica do mês 195.  sistemaAltoTiete   
##  9 índice armazenado                    78.9 sistemaGuarapiranga
## 10 pluviometria do dia                   3.4 sistemaGuarapiranga
## # ... with 14 more rows
…
sabesp_dia <- function(data) {
  link <- 'http://www2.sabesp.com.br/mananciais/DivulgacaoSiteSabesp.aspx'
  txt <- GET(link)
  viewstate <- pegar_tags(txt, "#__VIEWSTATE")
  eventval <- pegar_tags(txt, "#__EVENTVALIDATION")
  form <- sabesp_dados(data, viewstate, eventval)
  result <- POST(link, body = form)
  d_res <- sabesp_conteudo(result) %>% 
    mutate(result = 'OK')
  return(d_res)
}

# exemplo
sabesp_dia('2017-02-14')
## # A tibble: 24 x 4
##    titulo                               info lugar               result
##    <chr>                               <dbl> <chr>               <chr> 
##  1 índice armazenado                    62.5 sistemaCantareira   OK    
##  2 pluviometria do dia                   0   sistemaCantareira   OK    
##  3 pluviometria acumulada no mês        50.1 sistemaCantareira   OK    
##  4 pluviometria média histórica do mês 203.  sistemaCantareira   OK    
##  5 índice armazenado                    53.9 sistemaAltoTiete    OK    
##  6 pluviometria do dia                   0   sistemaAltoTiete    OK    
##  7 pluviometria acumulada no mês        54   sistemaAltoTiete    OK    
##  8 pluviometria média histórica do mês 195.  sistemaAltoTiete    OK    
##  9 índice armazenado                    78.9 sistemaGuarapiranga OK    
## 10 pluviometria do dia                   3.4 sistemaGuarapiranga OK    
## # ... with 14 more rows
…
parse_cjsg <- function(arqs) {
  abjutils::dvec(parse_cjsg_arq, arqs) %>%
    dplyr::rename(arq = item)
}

Rodando a função criada.

arqs <- dir('data/cjsg', full.names = TRUE)
d_cjsg <- tjsp::parse_cjsg(arqs)
saveRDS(d_cjsg, 'data/d_cjsg.rds')

d_cjsg <- readRDS('data/d_cjsg.rds')
d_cjsg
## # A tibble: 200 x 14
##    arq   id    cd_acordao n_processo comarca data_julgamento data_registro
##    <chr> <chr> <chr>      <chr>      <chr>   <chr>           <chr>        
##  1 data… 1     10120659   0053149-4… São Pa… 26/02/2015      02/02/2017   
##  2 data… 2     10092189   0011582-5… Ibitin… 10/06/2015      09/01/2017   
##  3 data… 3     10040923   0035263-7… Atibaia 25/08/2015      06/12/2016   
##  4 data… 4     10039029   0019944-6… Soroca… 30/06/2015      06/12/2016   
##  5 data… 5     10039023   0041547-9… Soroca… 15/09/2015      06/12/2016   
##  6 data… 6     10027377   0003710-9… Atibaia 15/09/2015      01/12/2016   
##  7 data… 7     9983410    7004537-0… Presid… 30/07/2015      18/11/2016   
##  8 data… 8     9956156    0004870-3… Sumaré  19/10/2015      08/11/2016   
##  9 data… 9     9901809    7007051-3… Araçat… 03/12/2015      19/10/2016   
## 10 data… 10    9899013    0087445-2… São Pa… 28/10/2015      18/10/2016   
## # ... with 190 more rows, and 7 more variables: ementa <chr>,
## #   orgao_julgador <chr>, relatora <chr>, classe_assunto <chr>,
## #   txt_ementa <chr>, result <chr>, outros_numeros <chr>
…
partes_cposg <- function(arqs, verbose = FALSE) {
  abjutils::dvec(partes_cposg_um, arqs, verbose = verbose) %>% 
    rename(arq = item)
}

arqs <- dir('data/cposg', full.names = TRUE)
d_partes <-  partes_cposg(arqs)
saveRDS(d_partes, 'data/d_partes.rds')
d_partes

d_partes <- readRDS('data/d_partes.rds')
d_partes
## # A tibble: 762 x 6
##    arq                      id id_tipo tipo   nome                  result
##    <chr>                 <int> <chr>   <chr>  <chr>                 <chr> 
##  1 data-raw/cposg/00000…     1 01      aptea… Ministério Público d… OK    
##  2 data-raw/cposg/00000…     2 01      apdoa… Maycon Grolla dos Sa… OK    
##  3 data-raw/cposg/00000…     2 02      advog… João Ricardo Meira A… OK    
##  4 data-raw/cposg/00000…     3 01      apdoa… Bruno dos Santos Ara… OK    
##  5 data-raw/cposg/00000…     3 02      advog… João Ricardo Meira A… OK    
##  6 data-raw/cposg/00000…     1 01      apela… Lucas Fernando Franc… OK    
##  7 data-raw/cposg/00000…     1 02      advog… Jose Carlos Santao    OK    
##  8 data-raw/cposg/00000…     2 01      apela… Ministério Público d… OK    
##  9 data-raw/cposg/00000…     1 01      apela… Walter Alves de Arau… OK    
## 10 data-raw/cposg/00000…     1 02      advog… Geraldo Sebastiao Pa… OK    
## # ... with 752 more rows
…
decisoes_cposg <- function(arqs, verbose = FALSE) {
  abjutils::dvec(decisoes_cposg_um, arqs, verbose = verbose) %>% 
    dplyr::rename(arq = item)
}

arqs <- dir('data/cposg', full.names = TRUE)
d_decisoes <- decisoes_cposg(arqs)
saveRDS(d_decisoes, 'data/d_decisoes.rds')
d_decisoes

## # A tibble: 361 x 5
##    arq             data    situacao       decisao                   result
##    <chr>           <chr>   <chr>          <chr>                     <chr> 
##  1 data-raw/cposg… 16/12/… Julgado        Por votação unanime,  de… OK    
##  2 data-raw/cposg… 03/12/… Julgado        Por maioria de votos, DE… OK    
##  3 data-raw/cposg… 08/10/… Julgado        Por maioria de votos, de… OK    
##  4 data-raw/cposg… 24/09/… Adiado a pedi… Após os votos do Relator… OK    
##  5 data-raw/cposg… 17/09/… Adiado a pedi… Após o voto do Relator, … OK    
##  6 data-raw/cposg… 16/12/… Julgado        Negaram provimento ao re… OK    
##  7 data-raw/cposg… 03/12/… Julgado        por votação unânime,  de… OK    
##  8 data-raw/cposg… 29/10/… Julgado        Por maioria de votos, de… OK    
##  9 data-raw/cposg… 12/05/… Retirado de P… ""                        OK    
## 10 data-raw/cposg… 14/04/… Retificação d… Por unanimidade, julgara… OK    
## # ... with 351 more rows
…
