Web Scraping - Curso-R
…
# exemplo
sabesp_conteudo(result)

## # A tibble: 24 x 3
##                                 titulo  info               lugar
##                                  <chr> <dbl>               <chr>
##  1                   índice armazenado  62.5   sistemaCantareira
##  2                 pluviometria do dia   0.0   sistemaCantareira
##  3       pluviometria acumulada no mês  50.1   sistemaCantareira
##  4 pluviometria média histórica do mês 203.4   sistemaCantareira
##  5                   índice armazenado  53.9    sistemaAltoTiete
##  6                 pluviometria do dia   0.0    sistemaAltoTiete
##  7       pluviometria acumulada no mês  54.0    sistemaAltoTiete
##  8 pluviometria média histórica do mês 194.9    sistemaAltoTiete
##  9                   índice armazenado  78.9 sistemaGuarapiranga
## 10                 pluviometria do dia   3.4 sistemaGuarapiranga
## # ... with 14 more rows
…
# exemplo
sabesp_dia('2017-02-14')

## # A tibble: 24 x 4
##                                 titulo  info               lugar result
##                                  <chr> <dbl>               <chr>  <chr>
##  1                   índice armazenado  62.5   sistemaCantareira     OK
##  2                 pluviometria do dia   0.0   sistemaCantareira     OK
##  3       pluviometria acumulada no mês  50.1   sistemaCantareira     OK
##  4 pluviometria média histórica do mês 203.4   sistemaCantareira     OK
##  5                   índice armazenado  53.9    sistemaAltoTiete     OK
##  6                 pluviometria do dia   0.0    sistemaAltoTiete     OK
##  7       pluviometria acumulada no mês  54.0    sistemaAltoTiete     OK
##  8 pluviometria média histórica do mês 194.9    sistemaAltoTiete     OK
##  9                   índice armazenado  78.9 sistemaGuarapiranga     OK
## 10                 pluviometria do dia   3.4 sistemaGuarapiranga     OK
## # ... with 14 more rows
…
parse_cjsg <- function(arqs) {
  abjutils::dvec(parse_cjsg_arq, arqs) %>%
    dplyr::rename(arq = item)
}

Rodando a função criada.

arqs <- dir('data/cjsg', full.names = TRUE)
d_cjsg <- tjsp::parse_cjsg(arqs)
saveRDS(d_cjsg, 'data/d_cjsg.rds')

d_cjsg <- readRDS('data/d_cjsg.rds')
d_cjsg

## # A tibble: 200 x 14
##                         arq    id cd_acordao                n_processo
##                       <chr> <chr>      <chr>                     <chr>
##  1 data-raw/cjsg/00001.html     1   10120659 0053149-48.2006.8.26.0050
##  2 data-raw/cjsg/00001.html     2   10092189 0011582-56.2009.8.26.0236
##  3 data-raw/cjsg/00001.html     3   10040923 0035263-74.2015.8.26.0000
##  4 data-raw/cjsg/00001.html     4   10039029 0019944-66.2015.8.26.0000
##  5 data-raw/cjsg/00001.html     5   10039023 0041547-98.2015.8.26.0000
##  6 data-raw/cjsg/00001.html     6   10027377 0003710-93.2014.8.26.0048
##  7 data-raw/cjsg/00001.html     7    9983410 7004537-07.2015.8.26.0482
##  8 data-raw/cjsg/00001.html     8    9956156 0004870-37.2014.8.26.0604
##  9 data-raw/cjsg/00001.html     9    9901809 7007051-30.2015.8.26.0482
## 10 data-raw/cjsg/00001.html    10    9899013 0087445-23.2011.8.26.0050
## # ... with 190 more rows, and 10 more variables: comarca <chr>,
## #   data_julgamento <chr>, data_registro <chr>, ementa <chr>,
## #   orgao_julgador <chr>, relatora <chr>, classe_assunto <chr>,
## #   txt_ementa <chr>, result <chr>, outros_numeros <chr>
…
partes_cposg <- function(arqs, verbose = FALSE) {
  abjutils::dvec(partes_cposg_um, arqs, verbose = verbose) %>% 
    rename(arq = item)
}

arqs <- dir('data/cposg', full.names = TRUE)
d_partes <-  partes_cposg(arqs)
saveRDS(d_partes, 'data/d_partes.rds')
d_partes

d_partes <- readRDS('data/d_partes.rds')
d_partes

## # A tibble: 762 x 6
##                                         arq    id id_tipo     tipo
##                                       <chr> <int>   <chr>    <chr>
##  1 data-raw/cposg/00000179520148260050.html     1      01 apteapdo
##  2 data-raw/cposg/00000179520148260050.html     2      01 apdoapte
##  3 data-raw/cposg/00000179520148260050.html     2      02 advogado
##  4 data-raw/cposg/00000179520148260050.html     3      01 apdoapte
##  5 data-raw/cposg/00000179520148260050.html     3      02 advogado
##  6 data-raw/cposg/00000201120148260451.html     1      01 apelante
##  7 data-raw/cposg/00000201120148260451.html     1      02 advogado
##  8 data-raw/cposg/00000201120148260451.html     2      01  apelado
##  9 data-raw/cposg/00000636120138260457.html     1      01 apelante
## 10 data-raw/cposg/00000636120138260457.html     1      02 advogado
## # ... with 752 more rows, and 2 more variables: nome <chr>, result <chr>
…
decisoes_cposg <- function(arqs, verbose = FALSE) {
  abjutils::dvec(decisoes_cposg_um, arqs, verbose = verbose) %>% 
    dplyr::rename(arq = item)
}

arqs <- dir('data/cposg', full.names = TRUE)
d_decisoes <- decisoes_cposg(arqs)
saveRDS(d_decisoes, 'data/d_decisoes.rds')
d_decisoes

d_decisoes <- readRDS('data/d_decisoes.rds')
d_decisoes

## # A tibble: 361 x 5
##                                         arq       data
##                                       <chr>      <chr>
##  1 data-raw/cposg/00000179520148260050.html 16/12/2015
##  2 data-raw/cposg/00000201120148260451.html 03/12/2015
##  3 data-raw/cposg/00000636120138260457.html 08/10/2015
##  4 data-raw/cposg/00000636120138260457.html 24/09/2015
##  5 data-raw/cposg/00000636120138260457.html 17/09/2015
##  6 data-raw/cposg/00000681720138260576.html 16/12/2015
##  7 data-raw/cposg/00001064420148260495.html 03/12/2015
##  8 data-raw/cposg/00001241620138260361.html 29/10/2015
##  9 data-raw/cposg/00001939320158260000.html 12/05/2015
## 10 data-raw/cposg/00001939320158260000.html 14/04/2015
## # ... with 351 more rows, and 3 more variables: situacao <chr>,
## #   decisao <chr>, result <chr>
…
