…
gini - Coeficiente de gini municipal (mede desigualdade social).

pop - População residente do município.

lat, lon - Latitude e longitude do município (ponto médio).

Para acessar esta base, instale e carregue o pacote abjData da seguinte maneira:

devtools::install_github("abjur/abjData")
library(abjData)

Assim, utilizaremos o objeto pnud_min para acessar os dados.

pnud_min
## # A tibble: 16,686 x 14
##      ano muni  uf    regiao  idhm idhm_e idhm_l idhm_r espvida  rdpc  gini
##    <int> <chr> <chr> <chr>  <dbl>  <dbl>  <dbl>  <dbl>   <dbl> <dbl> <dbl>
##  1  1991 ALTA… RO    Norte  0.329  0.112  0.617  0.516    62.0 198.  0.63 
##  2  1991 ARIQ… RO    Norte  0.432  0.199  0.684  0.593    66.0 319.  0.570
##  3  1991 CABI… RO    Norte  0.309  0.108  0.636  0.43     63.2 116.  0.7  
##  4  1991 CACO… RO    Norte  0.407  0.171  0.667  0.593    65.0 320.  0.66 
##  5  1991 CERE… RO    Norte  0.386  0.167  0.629  0.547    62.7 240.  0.6  
##  6  1991 COLO… RO    Norte  0.376  0.151  0.658  0.536    64.5 225.  0.62 
##  7  1991 CORU… RO    Norte  0.203  0.039  0.572  0.373    59.3  81.4 0.59 
##  8  1991 COST… RO    Norte  0.425  0.22   0.629  0.553    62.8 250.  0.65 
##  9  1991 ESPI… RO    Norte  0.388  0.159  0.653  0.561    64.2 263.  0.63 
## 10  1991 GUAJ… RO    Norte  0.468  0.247  0.662  0.625    64.7 391.  0.6  
## # ... with 16,676 more rows, and 3 more variables: pop <int>, lat <dbl>,
## #   lon <dbl>
…
O código fica mais intuitivo de ser escrito e mais simples de ser lido.

O pacote dplyr utiliza C e C++ por trás da maioria das funções, o que geralmente torna o código mais eficiente.

É possível trabalhar com diferentes fontes de dados, como bases relacionais (SQL) e data.table.

Agora, vamos avaliar com mais detalhes os principais verbos do pacote dplyr.

select()

A função select() seleciona colunas (variáveis). É possível utilizar nomes, índices, intervalos de variáveis ou utilizar as funções starts_with(x), contains(x), matches(x), one_of(x) para selecionar as variáveis.

pnud_min %>% 
  select(ano, regiao, muni)
## # A tibble: 16,686 x 3
##      ano regiao muni                 
##    <int> <chr>  <chr>                
##  1  1991 Norte  ALTA FLORESTA D'OESTE
##  2  1991 Norte  ARIQUEMES            
##  3  1991 Norte  CABIXI               
##  4  1991 Norte  CACOAL               
##  5  1991 Norte  CEREJEIRAS           
##  6  1991 Norte  COLORADO DO OESTE    
##  7  1991 Norte  CORUMBIARA           
##  8  1991 Norte  COSTA MARQUES        
##  9  1991 Norte  ESPIGÃO D'OESTE      
## 10  1991 Norte  GUAJARÁ-MIRIM        
## # ... with 16,676 more rows

pnud_min %>% 
  select(ano:regiao, rdpc)
## # A tibble: 16,686 x 5
##      ano muni                  uf    regiao  rdpc
##    <int> <chr>                 <chr> <chr>  <dbl>
##  1  1991 ALTA FLORESTA D'OESTE RO    Norte  198. 
##  2  1991 ARIQUEMES             RO    Norte  319. 
##  3  1991 CABIXI                RO    Norte  116. 
##  4  1991 CACOAL                RO    Norte  320. 
##  5  1991 CEREJEIRAS            RO    Norte  240. 
##  6  1991 COLORADO DO OESTE     RO    Norte  225. 
##  7  1991 CORUMBIARA            RO    Norte   81.4
##  8  1991 COSTA MARQUES         RO    Norte  250. 
##  9  1991 ESPIGÃO D'OESTE       RO    Norte  263. 
## 10  1991 GUAJARÁ-MIRIM         RO    Norte  391. 
## # ... with 16,676 more rows

pnud_min %>% 
  select(ano, starts_with('idhm'))
## # A tibble: 16,686 x 5
##      ano  idhm idhm_e idhm_l idhm_r
##    <int> <dbl>  <dbl>  <dbl>  <dbl>
##  1  1991 0.329  0.112  0.617  0.516
##  2  1991 0.432  0.199  0.684  0.593
##  3  1991 0.309  0.108  0.636  0.43 
##  4  1991 0.407  0.171  0.667  0.593
##  5  1991 0.386  0.167  0.629  0.547
##  6  1991 0.376  0.151  0.658  0.536
##  7  1991 0.203  0.039  0.572  0.373
##  8  1991 0.425  0.22   0.629  0.553
##  9  1991 0.388  0.159  0.653  0.561
## 10  1991 0.468  0.247  0.662  0.625
## # ... with 16,676 more rows

filter()

A função filter() filtra linhas. Ela é semelhante à função subset(), do R base.

pnud_min %>% 
  select(ano, muni, uf) %>% 
  filter(uf == 'AC')
## Warning: package 'bindrcpp' was built under R version 3.4.4
## # A tibble: 66 x 3
##      ano muni            uf   
##    <int> <chr>           <chr>
##  1  1991 ACRELÂNDIA      AC   
##  2  1991 ASSIS BRASIL    AC   
##  3  1991 BRASILÉIA       AC   
##  4  1991 BUJARI          AC   
##  5  1991 CAPIXABA        AC   
##  6  1991 CRUZEIRO DO SUL AC   
##  7  1991 EPITACIOLÂNDIA  AC   
##  8  1991 FEIJÓ           AC   
##  9  1991 JORDÃO          AC   
## 10  1991 MÂNCIO LIMA     AC   
## # ... with 56 more rows

Para fazer várias condições, use os operadores lógicos & e | ou separe filtros entre vírgulas.

pnud_min %>% 
  select(ano, regiao, uf, idhm) %>% 
  filter(uf %in% c('SP', 'MG') | idhm > .5, ano == 2010)
## # A tibble: 5,527 x 4
##      ano regiao uf     idhm
##    <int> <chr>  <chr> <dbl>
##  1  2010 Norte  RO    0.641
##  2  2010 Norte  RO    0.702
##  3  2010 Norte  RO    0.65 
##  4  2010 Norte  RO    0.718
##  5  2010 Norte  RO    0.692
##  6  2010 Norte  RO    0.685
##  7  2010 Norte  RO    0.613
##  8  2010 Norte  RO    0.611
##  9  2010 Norte  RO    0.672
## 10  2010 Norte  RO    0.657
## # ... with 5,517 more rows

Repare que o operador %in% é muito útil para trabalhar com vetores. O resultado da operação é um vetor lógico o tamanho do vetor do elemento da esquerda, identificando quais elementos da esquerda batem com algum elemento da direita.

Também podemos usar funções que retornam valores lógicos, como a str_detect().

library(stringr)
## Warning: package 'stringr' was built under R version 3.4.4

pnud_min %>% 
  select(muni, ano, uf) %>% 
  filter(str_detect(muni, '^[HG]|S$'), 
         ano == 1991)
## # A tibble: 970 x 3
##    muni                        ano uf   
##    <chr>                     <int> <chr>
##  1 ARIQUEMES                  1991 RO   
##  2 CEREJEIRAS                 1991 RO   
##  3 COSTA MARQUES              1991 RO   
##  4 GUAJARÁ-MIRIM              1991 RO   
##  5 ALTO ALEGRE DOS PARECIS    1991 RO   
##  6 BURITIS                    1991 RO   
##  7 CASTANHEIRAS               1991 RO   
##  8 GOVERNADOR JORGE TEIXEIRA  1991 RO   
##  9 PARECIS                    1991 RO   
## 10 SERINGUEIRAS               1991 RO   
## # ... with 960 more rows

mutate()

A função mutate() cria ou modifica colunas. Ela é equivalente à função transform(), mas aceita várias novas colunas iterativamente. Novas variáveis devem ter o mesmo número de linhas da base original (ou terem comprimento 1).

pnud_min %>% 
  select(muni, rdpc, pop, idhm_l, espvida) %>% 
  mutate(renda = rdpc * pop, 
         razao = idhm_l / espvida)
## # A tibble: 16,686 x 7
##    muni                   rdpc   pop idhm_l espvida     renda   razao
##    <chr>                 <dbl> <int>  <dbl>   <dbl>     <dbl>   <dbl>
##  1 ALTA FLORESTA D'OESTE 198.  22835  0.617    62.0  4531834. 0.00995
##  2 ARIQUEMES             319.  55018  0.684    66.0 17576600. 0.0104 
##  3 CABIXI                116.   5846  0.636    63.2   680357. 0.0101 
##  4 CACOAL                320.  66534  0.667    65.0 21306848. 0.0103 
##  5 CEREJEIRAS            240.  19030  0.629    62.7  4569103  0.0100 
##  6 COLORADO DO OESTE     225.  25070  0.658    64.5  5636237. 0.0102 
##  7 CORUMBIARA             81.4 10737  0.572    59.3   873777. 0.00964
##  8 COSTA MARQUES         250.   6902  0.629    62.8  1726052. 0.0100 
##  9 ESPIGÃO D'OESTE       263.  22505  0.653    64.2  5919490. 0.0102 
## 10 GUAJARÁ-MIRIM         391.  31240  0.662    64.7 12226399. 0.0102 
## # ... with 16,676 more rows

arrange()

A função arrange() ordena a base. O argumento desc= pode ser utilizado para gerar uma ordem decrescente.

pnud_min %>% 
  filter(ano == 2010) %>% 
  arrange(desc(espvida))
## # A tibble: 5,562 x 14
##      ano muni  uf    regiao  idhm idhm_e idhm_l idhm_r espvida  rdpc  gini
##    <int> <chr> <chr> <chr>  <dbl>  <dbl>  <dbl>  <dbl>   <dbl> <dbl> <dbl>
##  1  2010 BLUM… SC    Sul    0.806  0.722  0.894  0.812    78.6 1253.  0.46
##  2  2010 BRUS… SC    Sul    0.795  0.707  0.894  0.794    78.6 1117.  0.4 
##  3  2010 BALN… SC    Sul    0.845  0.789  0.894  0.854    78.6 1626.  0.52
##  4  2010 RIO … SC    Sul    0.802  0.727  0.894  0.793    78.6 1114.  0.45
##  5  2010 RANC… SC    Sul    0.753  0.644  0.893  0.743    78.6  814.  0.42
##  6  2010 RIO … SC    Sul    0.754  0.625  0.892  0.769    78.5  957.  0.47
##  7  2010 IOME… SC    Sul    0.795  0.749  0.891  0.754    78.4  874.  0.33
##  8  2010 JOAÇ… SC    Sul    0.827  0.771  0.891  0.823    78.4 1338.  0.54
##  9  2010 NOVA… SC    Sul    0.748  0.628  0.891  0.749    78.4  848.  0.35
## 10  2010 PORT… SC    Sul    0.786  0.724  0.891  0.752    78.4  864.  0.53
## # ... with 5,552 more rows, and 3 more variables: pop <int>, lat <dbl>,
## #   lon <dbl>

summarise

A função summarise() sumariza a base. Ela aplica uma função às variáveis, retornando um vetor de tamanho 1. Geralmente ela é utilizada em conjunto da função group_by().

pnud_min %>% 
  group_by(regiao, uf) %>% 
  summarise(n = n(), espvida = mean(espvida)) %>% 
  arrange(regiao, desc(espvida))
## # A tibble: 27 x 4
## # Groups:   regiao [5]
##    regiao       uf        n espvida
##    <chr>        <chr> <int>   <dbl>
##  1 Centro-Oeste DF        3    73.4
##  2 Centro-Oeste GO      735    70.0
##  3 Centro-Oeste MS      234    69.9
##  4 Centro-Oeste MT      423    69.4
##  5 Nordeste     CE      552    65.6
##  6 Nordeste     RN      501    65.1
##  7 Nordeste     PE      555    64.9
##  8 Nordeste     BA     1251    64.6
##  9 Nordeste     SE      225    64.3
## 10 Nordeste     PI      672    64.0
## # ... with 17 more rows
…
O pacote tidyr

O pacote tidyr dispõe de funções úteis para deixar os seus dados no formato que você precisa para a análise. Na maioria das vezes, utilizamos para deixá-los tidy. Outras, precisamos “bagunçá-los” um pouco para poder aplicar alguma função.

Nesse sentido, as principais funções são a gather() e a spread()

gather()

A função gather() “empilha” o banco de dados. Ela é utilizada principalmente quando as colunas da base não representam nomes de variáveis, mas sim seus valores.

pnud_min %>% 
  select(uf, muni, ano, starts_with('idhm_')) %>% 
  gather(tipo_idhm, idhm, starts_with('idhm_')) %>% 
  arrange(desc(idhm))
## # A tibble: 50,058 x 5
##    uf    muni                 ano tipo_idhm  idhm
##    <chr> <chr>              <int> <chr>     <dbl>
##  1 SC    BALNEÁRIO CAMBORIÚ  2010 idhm_l    0.894
##  2 SC    BLUMENAU            2010 idhm_l    0.894
##  3 SC    BRUSQUE             2010 idhm_l    0.894
##  4 SC    RIO DO SUL          2010 idhm_l    0.894
##  5 SC    RANCHO QUEIMADO     2010 idhm_l    0.893
##  6 SC    RIO DO OESTE        2010 idhm_l    0.892
##  7 SC    IOMERÊ              2010 idhm_l    0.891
##  8 SC    JOAÇABA             2010 idhm_l    0.891
##  9 SC    NOVA TRENTO         2010 idhm_l    0.891
## 10 SC    PORTO UNIÃO         2010 idhm_l    0.891
## # ... with 50,048 more rows

spread()

A função spread() é essencialmente o inverso da gather(). Ela espalha uma variável nas colunas.

pnud_min %>% 
  select(muni, uf, ano, starts_with('idhm_')) %>% 
  gather(tipo_idhm, idhm, starts_with('idhm_')) %>% 
  spread(ano, idhm)
## # A tibble: 16,686 x 6
##    muni                uf    tipo_idhm `1991` `2000` `2010`
##    <chr>               <chr> <chr>      <dbl>  <dbl>  <dbl>
##  1 ABADIA DE GOIÁS     GO    idhm_e     0.183  0.386  0.622
##  2 ABADIA DE GOIÁS     GO    idhm_l     0.658  0.765  0.83 
##  3 ABADIA DE GOIÁS     GO    idhm_r     0.563  0.623  0.687
##  4 Abadia dos Dourados MG    idhm_e     0.225  0.387  0.563
##  5 Abadia dos Dourados MG    idhm_l     0.728  0.799  0.839
##  6 Abadia dos Dourados MG    idhm_r     0.551  0.616  0.693
##  7 ABADIÂNIA           GO    idhm_e     0.188  0.292  0.579
##  8 ABADIÂNIA           GO    idhm_l     0.656  0.73   0.841
##  9 ABADIÂNIA           GO    idhm_r     0.56   0.598  0.671
## 10 Abaeté              MG    idhm_e     0.18   0.385  0.556
## # ... with 16,676 more rows
…
