…
as.period(intervalo)
## [1] "30d 0H 0M 0S"

Para mais informações sobre olubridate, visite o vignette do pacote.

Exercícios

Nos exercícios a seguir, vamos utilizar a base lakers, que contém estatísticas jogo a jogo do Los Angeles Lakers na temporada 2008-2009.

lakers %>% as_tibble()
## # A tibble: 34,624 x 13
##      date opponent game_type time  period etype team  player result points
##     <int> <chr>    <chr>     <chr>  <int> <chr> <chr> <chr>  <chr>   <int>
##  1 2.01e7 POR      home      12:00      1 jump… OFF   ""     ""          0
##  2 2.01e7 POR      home      11:39      1 shot  LAL   Pau G… missed      0
##  3 2.01e7 POR      home      11:37      1 rebo… LAL   Vladi… ""          0
##  4 2.01e7 POR      home      11:25      1 shot  LAL   Derek… missed      0
##  5 2.01e7 POR      home      11:23      1 rebo… LAL   Pau G… ""          0
##  6 2.01e7 POR      home      11:22      1 shot  LAL   Pau G… made        2
##  7 2.01e7 POR      home      11:22      1 foul  POR   Greg … ""          0
##  8 2.01e7 POR      home      11:22      1 free… LAL   Pau G… made        1
##  9 2.01e7 POR      home      11:00      1 foul  LAL   Vladi… ""          0
## 10 2.01e7 POR      home      10:53      1 shot  POR   LaMar… made        2
## # ... with 34,614 more rows, and 3 more variables: type <chr>, x <int>,
## #   y <int>
…
